[
    {
        "battery": "4000 mAh Li Polymer Battery",
        "camera": "12MP + 5MP | 20MP Front Camera",
        "display": "15.21 cm (5.99 inch) Full HD+ Display",
        "processor": "Qualcomm Snapdragon 636 Processor",
        "ratings": "6,96,654",
        "resource": "4 GB RAM | 64 GB ROM | Expandable Upto 128 GB",
        "reviews": "83,791",
        "stars": "4.5",
        "title": "Redmi Note 5 Pro (Gold, 64 GB)",
        "warranty": "Brand Warranty of 1 Year Available for Mobile and 6 Months for Accessories"
    },
    {
        "battery": "5000 mAh Battery",
        "camera": "16MP + 5MP | 12MP Front Camera",
        "display": "15.75 cm (6.2 inch) FHD+ Display",
        "processor": "Qualcomm Snapdragon 636 Processor",
        "ratings": "12,594",
        "resource": "4 GB RAM | 64 GB ROM | Expandable Upto 256 GB",
        "reviews": "2,132",
        "stars": "4.4",
        "title": "Motorola One Power (Black, 64 GB)",
        "warranty": "Brand Warranty of 1 Year Available for Mobile and 6 Months for Accessories"
    },
    {
        "battery": "4230 mAh Li-ion Battery",
        "camera": "13MP + 2MP | 5MP Front Camera",
        "display": "15.75 cm (6.2 inch) HD+ Display",
        "processor": "Qualcomm Snapdragon 450 Octa Core 1.8 GHz Processor",
        "ratings": "29,268",
        "resource": "2 GB RAM | 16 GB ROM | Expandable Upto 256 GB",
        "reviews": "3,525",
        "stars": "4.5",
        "title": "Realme C1 (Mirror Black, 16 GB)",
        "warranty": "Brand Warranty of 1 Year Available for Mobile and 6 Months for Accessories"
    },
    {
        "battery": "3000 mAh Battery",
        "camera": "13MP Rear Camera | 8MP Front Camera",
        "display": "14.22 cm (5.6 inch) HD+ Display",
        "processor": "1.6 GHz Exynos Octa Core Processor",
        "ratings": "17,414",
        "resource": "4 GB RAM | 64 GB ROM | Expandable Upto 256 GB",
        "reviews": "2,001",
        "stars": "4.3",
        "title": "Samsung Galaxy On6 (Blue, 64 GB)",
        "warranty": "Brand Warranty of 1 Year Available for Mobile and 6 Months for Accessories"
    },
    {
        "battery": "4000 mAh Li Polymer Battery",
        "camera": "12MP + 5MP | 20MP Front Camera",
        "display": "15.21 cm (5.99 inch) Full HD+ Display",
        "processor": "Qualcomm Snapdragon 636 Processor",
        "ratings": "6,96,654",
        "resource": "4 GB RAM | 64 GB ROM | Expandable Upto 128 GB",
        "reviews": "83,791",
        "stars": "4.5",
        "title": "Redmi Note 5 Pro (Black, 64 GB)",
        "warranty": "Brand Warranty of 1 Year Available for Mobile and 6 Months for Accessories"
    },
    {
        "battery": "5000 mAh Battery",
        "camera": "16MP + 5MP | 16MP Front Camera",
        "display": "15.21 cm (5.99 inch) Full HD+ Display",
        "processor": "Qualcomm Snapdragon 636 Octa Core Processor",
        "ratings": "65,268",
        "resource": "6 GB RAM | 64 GB ROM | Expandable Upto 2 TB",
        "reviews": "11,572",
        "stars": "4.4",
        "title": "Asus Zenfone Max Pro M1 (Black, 64 GB)",
        "warranty": "Brand Warranty of 1 Year Available for Handset and 6 Months for Accessories"
    },
    {
        "battery": "3000 mAh Battery",
        "camera": "13MP + 2MP | 8.0MP Front Camera",
        "display": "14.48 cm (5.7 inch) HD+ Display",
        "processor": "Qualcomm Snapdragon Octa Core Processor",
        "ratings": "1,35,074",
        "resource": "3 GB RAM | 32 GB ROM | Expandable Upto 256 GB",
        "reviews": "15,018",
        "stars": "4.2",
        "title": "Honor 7A (Gold, 32 GB)",
        "warranty": "12 Months on handset, 6 Months on battery, 6 Months on charger & 3 Months on data cable"
    },
    {
        "battery": "3000 mAh Battery",
        "camera": "13MP + 2MP | 8.0MP Front Camera",
        "display": "14.48 cm (5.7 inch) HD+ Display",
        "processor": "Qualcomm Snapdragon Octa Core Processor",
        "ratings": "1,35,074",
        "resource": "3 GB RAM | 32 GB ROM | Expandable Upto 256 GB",
        "reviews": "15,018",
        "stars": "4.2",
        "title": "Honor 7A (Blue, 32 GB)",
        "warranty": "12 Months on handset, 6 Months on battery, 6 Months on charger & 3 Months on data cable"
    },
    {
        "battery": "3000 mAh Battery",
        "camera": "13MP + 2MP | 8.0MP Front Camera",
        "display": "14.48 cm (5.7 inch) HD+ Display",
        "processor": "Qualcomm Snapdragon Octa Core Processor",
        "ratings": "1,35,074",
        "resource": "3 GB RAM | 32 GB ROM | Expandable Upto 256 GB",
        "reviews": "15,018",
        "stars": "4.2",
        "title": "Honor 7A (Black, 32 GB)",
        "warranty": "12 Months on handset, 6 Months on battery, 6 Months on charger & 3 Months on data cable"
    },
    {
        "battery": "4000 mAh Li-polymer Battery",
        "camera": "12MP + 5MP | 20MP Front Camera",
        "display": "15.7 cm (6.18 inch) FHD+ Display",
        "processor": "Qualcomm Snapdragon 845 Processor",
        "ratings": "61,722",
        "resource": "6 GB RAM | 64 GB ROM | Expandable Upto 256 GB",
        "reviews": "10,296",
        "stars": "4.6",
        "title": "POCO F1 by Xiaomi (Graphite Black, 64 GB)",
        "warranty": "Brand Warranty of 1 Year Available for Mobile and 6 Months for Accessories"
    },
    {
        "battery": "4000 mAh Li Polymer Battery",
        "camera": "12MP + 5MP | 20MP Front Camera",
        "display": "15.21 cm (5.99 inch) Full HD+ Display",
        "processor": "Qualcomm Snapdragon 636 Processor",
        "ratings": "6,96,654",
        "resource": "4 GB RAM | 64 GB ROM | Expandable Upto 128 GB",
        "reviews": "83,791",
        "stars": "4.5",
        "title": "Redmi Note 5 Pro (Blue, 64 GB)",
        "warranty": "Brand Warranty of 1 Year Available for Mobile and 6 Months for Accessories"
    },
    {
        "battery": "3000 mAh Lithium-polymer Battery",
        "camera": "12MP + 5MP | 5MP Front Camera",
        "display": "13.84 cm (5.45 inch) HD+ Display",
        "processor": "2.0 GHz Mediatek P22 Octacore Processor",
        "ratings": "1,02,592",
        "resource": "3 GB RAM | 32 GB ROM | Expandable Upto 256 GB",
        "reviews": "7,044",
        "stars": "4.5",
        "title": "Redmi 6 (Black, 32 GB)",
        "warranty": "Brand Warranty of 1 Year Available for Mobile and 6 Months for Accessories"
    },
    {
        "battery": "3020 mAh Battery",
        "camera": "13MP Rear Camera | 5MP Front Camera",
        "display": "13.84 cm (5.45 inch) Display",
        "processor": "Mediatek MT6739 Cortex A53 Processor",
        "ratings": "10,681",
        "resource": "2 GB RAM | 16 GB ROM | Expandable Upto 256 GB",
        "reviews": "851",
        "stars": "4.2",
        "title": "Honor 7S (Blue, 16 GB)",
        "warranty": "12 Months on Handset, 6 Months on Battery, 6 Months on Charger & 3 Months on Data Cable"
    },
    {
        "battery": "3500 mAh Lithium-ion Battery",
        "camera": "16MP + 5MP | 16MP Front Camera",
        "display": "15.24 cm (6 inch) HD+ Display",
        "processor": "Qualcomm Snapdragon 450 Processor",
        "ratings": "18,160",
        "resource": "4 GB RAM | 64 GB ROM | Expandable Upto 256 GB",
        "reviews": "1,992",
        "stars": "4.4",
        "title": "Samsung Galaxy On8 (Black, 64 GB)",
        "warranty": "Brand Warranty of 1 Year Available for Mobile and 6 Months for Accessories"
    },
    {
        "battery": "3020 mAh Battery",
        "camera": "13MP Rear Camera | 5MP Front Camera",
        "display": "13.84 cm (5.45 inch) Display",
        "processor": "Mediatek MT6739 Cortex A53 Processor",
        "ratings": "10,681",
        "resource": "2 GB RAM | 16 GB ROM | Expandable Upto 256 GB",
        "reviews": "851",
        "stars": "4.2",
        "title": "Honor 7S (Black, 16 GB)",
        "warranty": "12 Months on Handset, 6 Months on Battery, 6 Months on Charger & 3 Months on Data Cable"
    },
    {
        "battery": "4000 mAh Battery",
        "camera": "13MP + 5MP | 8MP Front Camera",
        "display": "13.21 cm (5.2 inch) Full HD Display",
        "processor": "MediaTek MTK Helio P25 Octa Core 2.5 GHz Processor",
        "ratings": "2,28,838",
        "resource": "3 GB RAM | 32 GB ROM | Expandable Upto 128 GB",
        "reviews": "44,898",
        "stars": "4.1",
        "title": "Lenovo K8 Plus (Venom Black, 32 GB)",
        "warranty": "Brand Warranty of 1 Year Available for Mobile and 6 Months for Accessories"
    },
    {
        "battery": "5000 mAh Battery",
        "camera": "13MP + 5MP | 8MP Front Camera",
        "display": "15.21 cm (5.99 inch) Full HD+ Display",
        "processor": "Qualcomm Snapdragon 636 Octa Core Processor",
        "ratings": "98,701",
        "resource": "4 GB RAM | 64 GB ROM | Expandable Upto 2 TB",
        "reviews": "18,374",
        "stars": "4.3",
        "title": "Asus Zenfone Max Pro M1 (Black, 64 GB)",
        "warranty": "Brand Warranty of 1 Year Available for Handset and 6 Months for Accessories"
    },
    {
        "battery": "3000 mAh Lithium-polymer Battery",
        "camera": "12MP + 5MP | 5MP Front Camera",
        "display": "13.84 cm (5.45 inch) HD+ Display",
        "processor": "2.0 GHz Mediatek P22 Octacore Processor",
        "ratings": "1,02,592",
        "resource": "3 GB RAM | 32 GB ROM | Expandable Upto 256 GB",
        "reviews": "7,044",
        "stars": "4.5",
        "title": "Redmi 6 (Gold, 32 GB)",
        "warranty": "Brand Warranty of 1 Year Available for Mobile and 6 Months for Accessories"
    },
    {
        "battery": "3500 mAh Lithium-ion Battery",
        "camera": "16MP + 5MP | 16MP Front Camera",
        "display": "15.24 cm (6 inch) HD+ Display",
        "processor": "Qualcomm Snapdragon 450 Processor",
        "ratings": "18,161",
        "resource": "4 GB RAM | 64 GB ROM | Expandable Upto 256 GB",
        "reviews": "1,992",
        "stars": "4.4",
        "title": "Samsung Galaxy On8 (Blue, 64 GB)",
        "warranty": "Brand Warranty of 1 Year Available for Mobile and 6 Months for Accessories"
    },
    {
        "battery": "3300 mAh Li-ion Battery",
        "camera": "13MP Rear Camera | 8MP Front Camera",
        "display": "13.97 cm (5.5 inch) Full HD Display",
        "processor": "Exynos 7870 Octa Core 1.6 GHz Processor",
        "ratings": "3,08,925",
        "resource": "3 GB RAM | 64 GB ROM | Expandable Upto 256 GB",
        "reviews": "53,105",
        "stars": "4.2",
        "title": "Samsung Galaxy On Nxt (Gold, 64 GB)",
        "warranty": "Brand Warranty of 1 Year"
    },
    {
        "battery": "4000 mAh Li-polymer Battery",
        "camera": "13MP Rear Camera | 8MP Front Camera",
        "display": "15.21 cm (5.99 inch) HD+ Display",
        "processor": "MT6739WA Processor",
        "ratings": "721",
        "resource": "3 GB RAM | 32 GB ROM | Expandable Upto 128 GB",
        "reviews": "116",
        "stars": "4.2",
        "title": "Panasonic Eluga Ray 600 (Black, 32 GB)",
        "warranty": "Brand Warranty of 1 Year Available for Mobile and 6 Months for Accessories"
    },
    {
        "battery": "5000 mAh Battery",
        "camera": "13MP + 5MP | 8MP Front Camera",
        "display": "15.21 cm (5.99 inch) Full HD+ Display",
        "processor": "Qualcomm Snapdragon 636 Octa Core Processor",
        "ratings": "90,427",
        "resource": "3 GB RAM | 32 GB ROM | Expandable Upto 2 TB",
        "reviews": "16,627",
        "stars": "4.3",
        "title": "Asus Zenfone Max Pro M1 (Black, 32 GB)",
        "warranty": "Brand Warranty of 1 Year Available for Handset and 6 Months for Accessories"
    },
    {
        "battery": "3260 mAh Li-ion Battery",
        "camera": "16MP + 5MP | 24MP Front Camera",
        "display": "16.0 cm (6.3 inch) Full HD+ Display",
        "processor": "Qualcomm Snapdragon 626 Processor",
        "ratings": "48,657",
        "resource": "4 GB RAM | 64 GB ROM | Expandable Upto 256 GB",
        "reviews": "5,938",
        "stars": "4.4",
        "title": "Vivo V9 (Pearl Black (Golden Line), 64 GB)",
        "warranty": "Brand Warranty of 1 Year Available for Mobile and 6 Months for Accessories"
    },
    {
        "battery": "3000 mAh Battery",
        "camera": "13MP Rear Camera | 8MP Front Camera",
        "display": "14.22 cm (5.6 inch) HD+ Display",
        "processor": "1.6 GHz Exynos Octa Core Processor",
        "ratings": "17,414",
        "resource": "4 GB RAM | 64 GB ROM | Expandable Upto 256 GB",
        "reviews": "2,001",
        "stars": "4.3",
        "title": "Samsung Galaxy On6 (Black, 64 GB)",
        "warranty": "Brand Warranty of 1 Year Available for Mobile and 6 Months for Accessories"
    }
]
